ASxxxx Assembler V01.70 + NoICE + SDCC mods + Flat24 Feb-1999  (Intel 8051), page 1.

Symbol Table

    A                                                              00D6 
    AC                                                             00D6 
    ACC                                                            00E0 
    ACC.0                                                          00E0 
    ACC.1                                                          00E1 
    ACC.2                                                          00E2 
    ACC.3                                                          00E3 
    ACC.4                                                          00E4 
    ACC.5                                                          00E5 
    ACC.6                                                          00E6 
    ACC.7                                                          00E7 
    B                                                              00F0 
    B.0                                                            00F0 
    B.1                                                            00F1 
    B.2                                                            00F2 
    B.3                                                            00F3 
    B.4                                                            00F4 
    B.5                                                            00F5 
    B.6                                                            00F6 
    B.7                                                            00F7 
    CPRL2                                                          00C8 
    CT2                                                            00C9 
    CY                                                             00D7 
    DPH                                                            0083 
    DPL                                                            0082 
    EA                                                             00AF 
    ES                                                             00AC 
    ET0                                                            00A9 
    ET1                                                            00AB 
    ET2                                                            00AD 
    EX0                                                            00A8 
    EX1                                                            00AA 
    EXEN2                                                          00CB 
    EXF2                                                           00CE 
    F0                                                             00D5 
    IE                                                             00A8 
    IE.0                                                           00A8 
    IE.1                                                           00A9 
    IE.2                                                           00AA 
    IE.3                                                           00AB 
    IE.4                                                           00AC 
    IE.5                                                           00AD 
    IE.7                                                           00AF 
    IE0                                                            0089 
    IE1                                                            008B 
    INT0                                                           00B2 
    INT1                                                           00B3 
    IP                                                             00B8 
    IP.0                                                           00B8 
    IP.1                                                           00B9 
    IP.2                                                           00BA 
    IP.3                                                           00BB 
    IP.4                                                           00BC 
    IP.5                                                           00BD 
    IT0                                                            0088 
    IT1                                                            008A 
    OV                                                             00D2 
    P                                                              00D0 
    P0                                                             0080 
    P0.0                                                           0080 
    P0.1                                                           0081 
    P0.2                                                           0082 
    P0.3                                                           0083 
    P0.4                                                           0084 
    P0.5                                                           0085 
    P0.6                                                           0086 
    P0.7                                                           0087 
    P1                                                             0090 
    P1.0                                                           0090 
    P1.1                                                           0091 
    P1.2                                                           0092 
    P1.3                                                           0093 
    P1.4                                                           0094 
    P1.5                                                           0095 
    P1.6                                                           0096 
    P1.7                                                           0097 
    P2                                                             00A0 
    P2.0                                                           00A0 
    P2.1                                                           00A1 
    P2.2                                                           00A2 
    P2.3                                                           00A3 
    P2.4                                                           00A4 
    P2.5                                                           00A5 
    P2.6                                                           00A6 
    P2.7                                                           00A7 
    P3                                                             00B0 
    P3.0                                                           00B0 
    P3.1                                                           00B1 
    P3.2                                                           00B2 
    P3.3                                                           00B3 
    P3.4                                                           00B4 
    P3.5                                                           00B5 
    P3.6                                                           00B6 
    P3.7                                                           00B7 
    PCON                                                           0087 
    PS                                                             00BC 
    PSW                                                            00D0 
    PSW.0                                                          00D0 
    PSW.1                                                          00D1 
    PSW.2                                                          00D2 
    PSW.3                                                          00D3 
    PSW.4                                                          00D4 
    PSW.5                                                          00D5 
    PSW.6                                                          00D6 
    PSW.7                                                          00D7 
    PT0                                                            00B9 
    PT1                                                            00BB 
    PT2                                                            00BD 
    PX0                                                            00B8 
    PX1                                                            00BA 
    RB8                                                            009A 
    RCAP2H                                                         00CB 
    RCAP2L                                                         00CA 
    RCLK                                                           00CD 
    REN                                                            009C 
    RI                                                             0098 
    RS0                                                            00D3 
    RS1                                                            00D4 
    RXD                                                            00B0 
    SBUF                                                           0099 
    SCON                                                           0098 
    SCON.0                                                         0098 
    SCON.1                                                         0099 
    SCON.2                                                         009A 
    SCON.3                                                         009B 
    SCON.4                                                         009C 
    SCON.5                                                         009D 
    SCON.6                                                         009E 
    SCON.7                                                         009F 
    SM0                                                            009F 
    SM1                                                            009E 
    SM2                                                            009D 
    SP                                                             0081 
    T2CON                                                          00C8 
    T2CON.0                                                        00C8 
    T2CON.1                                                        00C9 
    T2CON.2                                                        00CA 
    T2CON.3                                                        00CB 
    T2CON.4                                                        00CC 
    T2CON.5                                                        00CD 
    T2CON.6                                                        00CE 
    T2CON.7                                                        00CF 
    TB8                                                            009B 
    TCLK                                                           00CC 
    TCON                                                           0088 
    TCON.0                                                         0088 
    TCON.1                                                         0089 
    TCON.2                                                         008A 
    TCON.3                                                         008B 
    TCON.4                                                         008C 
    TCON.5                                                         008D 
    TCON.6                                                         008E 
    TCON.7                                                         008F 
    TF0                                                            008D 
    TF1                                                            008F 
    TF2                                                            00CF 
    TH0                                                            008C 
    TH1                                                            008D 
    TH2                                                            00CD 
    TI                                                             0099 
    TL0                                                            008A 
    TL1                                                            008B 
    TL2                                                            00CC 
    TMOD                                                           0089 
    TR0                                                            008C 
    TR1                                                            008E 
    TR2                                                            00CA 
    TXD                                                            00B1 
    _AC                                                         =  00D6 G
    _ACC                                                        =  00E0 G
    _AUXR                                                       =  008E G
    _AUXR1                                                      =  00A2 G
    _B                                                          =  00F0 G
    _BDRCON                                                     =  009B G
    _BREG_F0                                                    =  00F0 G
    _BREG_F1                                                    =  00F1 G
    _BREG_F2                                                    =  00F2 G
    _BREG_F3                                                    =  00F3 G
    _BREG_F4                                                    =  00F4 G
    _BREG_F5                                                    =  00F5 G
    _BREG_F6                                                    =  00F6 G
    _BREG_F7                                                    =  00F7 G
    _BRL                                                        =  009A G
 14 _BufferInitialize                                              018F GR
    _CCAP0H                                                     =  00FA G
    _CCAP0L                                                     =  00EA G
    _CCAP1H                                                     =  00FB G
    _CCAP1L                                                     =  00EB G
    _CCAP2H                                                     =  00FC G
    _CCAP2L                                                     =  00EC G
    _CCAP3H                                                     =  00FD G
    _CCAP3L                                                     =  00ED G
    _CCAP4H                                                     =  00FE G
    _CCAP4L                                                     =  00EE G
    _CCAPM0                                                     =  00DA G
    _CCAPM1                                                     =  00DB G
    _CCAPM2                                                     =  00DC G
    _CCAPM3                                                     =  00DD G
    _CCAPM4                                                     =  00DE G
    _CCF0                                                       =  00D8 G
    _CCF1                                                       =  00D9 G
    _CCF2                                                       =  00DA G
    _CCF3                                                       =  00DB G
    _CCF4                                                       =  00DC G
    _CCON                                                       =  00D8 G
    _CF                                                         =  00DF G
    _CH                                                         =  00F9 G
    _CKCKON0                                                    =  008F G
    _CKCKON1                                                    =  008F G
    _CKRL                                                       =  0097 G
    _CL                                                         =  00E9 G
    _CMOD                                                       =  00D9 G
    _CP_RL2                                                     =  00C8 G
    _CR                                                         =  00DE G
    _CY                                                         =  00D7 G
    _C_T2                                                       =  00C9 G
    _DP0H                                                       =  0083 G
    _DP0L                                                       =  0082 G
    _DPH                                                        =  0083 G
    _DPL                                                        =  0082 G
    _EA                                                         =  00AF G
    _EC                                                         =  00AE G
    _EECON                                                      =  00D2 G
    _ES                                                         =  00AC G
    _ET0                                                        =  00A9 G
    _ET1                                                        =  00AB G
    _ET2                                                        =  00AD G
    _EX0                                                        =  00A8 G
    _EX1                                                        =  00AA G
    _EXEN2                                                      =  00CB G
    _EXF2                                                       =  00CE G
    _F0                                                         =  00D5 G
    _F1                                                         =  00D1 G
    _IE                                                         =  00A8 G
    _IE0                                                        =  0089 G
    _IE1                                                        =  008B G
    _IEN0                                                       =  00A8 G
    _IEN1                                                       =  00B1 G
    _INT0                                                       =  00B2 G
    _INT1                                                       =  00B3 G
    _IP                                                         =  00B8 G
    _IPH0                                                       =  00B7 G
    _IPH1                                                       =  00B3 G
    _IPL0                                                       =  00B8 G
    _IPL1                                                       =  00B2 G
    _IT0                                                        =  0088 G
    _IT1                                                        =  008A G
    _KBE                                                        =  009D G
    _KBF                                                        =  009E G
    _KBLS                                                       =  009C G
    _OV                                                         =  00D2 G
    _P                                                          =  00D0 G
    _P0                                                         =  0080 G
    _P0_0                                                       =  0080 G
    _P0_1                                                       =  0081 G
    _P0_2                                                       =  0082 G
    _P0_3                                                       =  0083 G
    _P0_4                                                       =  0084 G
    _P0_5                                                       =  0085 G
    _P0_6                                                       =  0086 G
    _P0_7                                                       =  0087 G
    _P1                                                         =  0090 G
    _P1_0                                                       =  0090 G
    _P1_1                                                       =  0091 G
    _P1_2                                                       =  0092 G
    _P1_3                                                       =  0093 G
    _P1_4                                                       =  0094 G
    _P1_5                                                       =  0095 G
    _P1_6                                                       =  0096 G
    _P1_7                                                       =  0097 G
    _P2                                                         =  00A0 G
    _P2_0                                                       =  00A0 G
    _P2_1                                                       =  00A1 G
    _P2_2                                                       =  00A2 G
    _P2_3                                                       =  00A3 G
    _P2_4                                                       =  00A4 G
    _P2_5                                                       =  00A5 G
    _P2_6                                                       =  00A6 G
    _P2_7                                                       =  00A7 G
    _P3                                                         =  00B0 G
    _P3_0                                                       =  00B0 G
    _P3_1                                                       =  00B1 G
    _P3_2                                                       =  00B2 G
    _P3_3                                                       =  00B3 G
    _P3_4                                                       =  00B4 G
    _P3_5                                                       =  00B5 G
    _P3_6                                                       =  00B6 G
    _P3_7                                                       =  00B7 G
    _P4                                                         =  00C0 G
    _P4_0                                                       =  00C0 G
    _P4_1                                                       =  00C1 G
    _P4_2                                                       =  00C2 G
    _P4_3                                                       =  00C3 G
    _P4_4                                                       =  00C4 G
    _P4_5                                                       =  00C5 G
    _P4_6                                                       =  00C6 G
    _P4_7                                                       =  00C7 G
    _P5                                                         =  00D8 G
    _P5_0                                                       =  00D8 G
    _P5_1                                                       =  00D9 G
    _P5_2                                                       =  00DA G
    _P5_3                                                       =  00DB G
    _P5_4                                                       =  00DC G
    _P5_5                                                       =  00DD G
    _P5_6                                                       =  00DE G
    _P5_7                                                       =  00DF G
    _PCON                                                       =  0087 G
    _PLS                                                        =  00BC G
    _PPCL                                                       =  00BE G
    _PS                                                         =  00BC G
    _PSW                                                        =  00D0 G
    _PT0                                                        =  00B9 G
    _PT0L                                                       =  00B9 G
    _PT1                                                        =  00BB G
    _PT1L                                                       =  00BB G
    _PT2                                                        =  00BD G
    _PT2L                                                       =  00BD G
    _PX0                                                        =  00B8 G
    _PX0L                                                       =  00B8 G
    _PX1                                                        =  00BA G
    _PX1L                                                       =  00BA G
    _RB8                                                        =  009A G
    _RCAP2H                                                     =  00CB G
    _RCAP2L                                                     =  00CA G
    _RCLK                                                       =  00CD G
    _RD                                                         =  00B7 G
    _REN                                                        =  009C G
    _RI                                                         =  0098 G
    _RS0                                                        =  00D3 G
    _RS1                                                        =  00D4 G
    _RXD                                                        =  00B0 G
    _RXD0                                                       =  00B0 G
 14 _ReadValue                                                     035A GR
    _SADDR                                                      =  00A9 G
    _SADEN                                                      =  00B9 G
    _SBUF                                                       =  0099 G
    _SBUF0                                                      =  0099 G
    _SCON                                                       =  0098 G
    _SM0                                                        =  009F G
    _SM1                                                        =  009E G
    _SM2                                                        =  009D G
    _SP                                                         =  0081 G
    _SPCON                                                      =  00C3 G
    _SPDAT                                                      =  00C5 G
    _SPSTA                                                      =  00C4 G
 14 _SerialInitialize                                              0CF6 GR
    _T0                                                         =  00B4 G
    _T1                                                         =  00B5 G
    _T2CON                                                      =  00C8 G
    _T2CON_0                                                    =  00C8 G
    _T2CON_1                                                    =  00C9 G
    _T2CON_2                                                    =  00CA G
    _T2CON_3                                                    =  00CB G
    _T2CON_4                                                    =  00CC G
    _T2CON_5                                                    =  00CD G
    _T2CON_6                                                    =  00CE G
    _T2CON_7                                                    =  00CF G
    _T2MOD                                                      =  00C9 G
    _TB8                                                        =  009B G
    _TCLK                                                       =  00CC G
    _TCON                                                       =  0088 G
    _TF0                                                        =  008D G
    _TF1                                                        =  008F G
    _TF2                                                        =  00CF G
    _TH0                                                        =  008C G
    _TH1                                                        =  008D G
    _TH2                                                        =  00CD G
    _TI                                                         =  0099 G
    _TL0                                                        =  008A G
    _TL1                                                        =  008B G
    _TL2                                                        =  00CC G
    _TMOD                                                       =  0089 G
    _TR0                                                        =  008C G
    _TR1                                                        =  008E G
    _TR2                                                        =  00CA G
    _TXD                                                        =  00B1 G
    _TXD0                                                       =  00B1 G
    _WDTPRG                                                     =  00A7 G
    _WDTRST                                                     =  00A6 G
    _WR                                                         =  00B6 G
    __gptrget                                                      **** GX
    __gptrput                                                      **** GX
  B __interrupt_vect                                               0000 R
    __mcs51_genRAMCLEAR                                            **** GX
    __mcs51_genXINIT                                               **** GX
    __mcs51_genXRAMCLEAR                                           **** GX
    __modsint                                                      **** GX
    __modsint_PARM_2                                               **** GX
    __mulint                                                       **** GX
    __mulint_PARM_2                                                **** GX
 14 __sdcc_external_startup                                        0005 GR
    __sdcc_gsinit_startup                                          **** GX
 14 __sdcc_program_startup                                         0000 GR
  5 __start__stack                                                 0000 GR
 15 __str_0                                                        0000 R
 15 __str_1                                                        0018 R
 15 __str_10                                                       012B R
 15 __str_11                                                       0142 R
 15 __str_12                                                       0159 R
 15 __str_13                                                       0184 R
 15 __str_14                                                       01A1 R
 15 __str_15                                                       01B4 R
 15 __str_16                                                       01E0 R
 15 __str_17                                                       01FA R
 15 __str_18                                                       022C R
 15 __str_19                                                       0252 R
 15 __str_2                                                        001B R
 15 __str_20                                                       0263 R
 15 __str_21                                                       0277 R
 15 __str_22                                                       02D1 R
 15 __str_23                                                       02F2 R
 15 __str_24                                                       031F R
 15 __str_25                                                       0352 R
 15 __str_26                                                       038C R
 15 __str_27                                                       03E8 R
 15 __str_28                                                       0411 R
 15 __str_29                                                       0438 R
 15 __str_3                                                        005A R
 15 __str_30                                                       0450 R
 15 __str_31                                                       046A R
 15 __str_32                                                       0482 R
 15 __str_33                                                       0498 R
 15 __str_34                                                       04B0 R
 15 __str_35                                                       04C8 R
 15 __str_36                                                       04DE R
 15 __str_37                                                       04E6 R
 15 __str_4                                                        0072 R
 15 __str_5                                                        008A R
 15 __str_6                                                        00C0 R
 15 __str_7                                                        00F4 R
 15 __str_8                                                        0113 R
 15 __str_9                                                        011F R
 16 __xinit__i                                                     0000 R
  9 _bptr0                                                         341B GR
  9 _bptr1                                                         341E GR
  9 _buff1ptr                                                      320A GR
  9 _buff2ptr                                                      320D GR
  9 _buff_val                                                      3412 GR
  9 _buffer                                                        300A GR
  9 _buffer_count                                                  3000 R
  9 _buffer_number                                                 3006 R
  9 _bufflen                                                       3210 GR
  9 _char_count                                                    3004 R
 14 _delay                                                         0D2F GR
  9 _delay_x_1_1                                                   3436 R
 14 _deletebuffer                                                  04FC GR
 14 _display                                                       0A97 GR
 14 _displaydelete                                                 06B5 GR
  9 _displaydelete_charnum0_1_1                                    3423 R
  9 _displaydelete_charnum1_1_1                                    3425 R
 14 _fillbuffer0                                                   05A3 GR
  9 _fillbuffer0_buff_val_1_1                                      3421 R
 14 _fillbuffer1                                                   05F9 GR
  9 _fillbuffer1_buff_val_1_1                                      3422 R
    _free                                                          **** GX
 14 _freeEverything                                                064F GR
 14 _getchar                                                       0D05 GR
  9 _heap                                                          0000 GR
  A _i                                                             0000 GR
    _init_dynamic_memory                                           **** GX
    _init_dynamic_memory_PARM_2                                    **** GX
  9 _j                                                             3413 GR
  9 _lastchar_count                                                3008 R
 14 _main                                                          001B GR
    _malloc                                                        **** GX
 14 _newbuffer                                                     03D3 GR
    _printf_tiny                                                   **** GX
  9 _ptr                                                           3414 GR
 14 _putchar                                                       0D14 GR
  9 _putchar_x_1_1                                                 3434 R
 14 _putstr                                                        0C99 GR
  9 _putstr_ptr_1_1                                                3431 R
 14 _putstrbuff                                                    0BDA GR
  9 _putstrbuff_count_1_1                                          342F R
  9 _putstrbuff_ptr_1_1                                            342C R
 14 _putstrhex                                                     0AE3 GR
  9 _putstrhex_count_1_1                                           342A R
  9 _putstrhex_ptr_1_1                                             3427 R
  9 _rec                                                           3410 GR
  9 _res                                                           3419 GR
  9 _stor_count                                                    3002 R
  9 _temp                                                          3411 GR
  9 _value                                                         3417 GR
    a                                                              00D6 
    ac                                                             00D6 
    acc                                                            00E0 
    acc.0                                                          00E0 
    acc.1                                                          00E1 
    acc.2                                                          00E2 
    acc.3                                                          00E3 
    acc.4                                                          00E4 
    acc.5                                                          00E5 
    acc.6                                                          00E6 
    acc.7                                                          00E7 
    ar0                                                         =  0000 
    ar1                                                         =  0001 
    ar2                                                         =  0002 
    ar3                                                         =  0003 
    ar4                                                         =  0004 
    ar5                                                         =  0005 
    ar6                                                         =  0006 
    ar7                                                         =  0007 
    b                                                              00F0 
    b.0                                                            00F0 
    b.1                                                            00F1 
    b.2                                                            00F2 
    b.3                                                            00F3 
    b.4                                                            00F4 
    b.5                                                            00F5 
    b.6                                                            00F6 
    b.7                                                            00F7 
    cprl2                                                          00C8 
    ct2                                                            00C9 
    cy                                                             00D7 
    dph                                                            0083 
    dpl                                                            0082 
    ea                                                             00AF 
    es                                                             00AC 
    et0                                                            00A9 
    et1                                                            00AB 
    et2                                                            00AD 
    ex0                                                            00A8 
    ex1                                                            00AA 
    exen2                                                          00CB 
    exf2                                                           00CE 
    f0                                                             00D5 
    ie                                                             00A8 
    ie.0                                                           00A8 
    ie.1                                                           00A9 
    ie.2                                                           00AA 
    ie.3                                                           00AB 
    ie.4                                                           00AC 
    ie.5                                                           00AD 
    ie.7                                                           00AF 
    ie0                                                            0089 
    ie1                                                            008B 
    int0                                                           00B2 
    int1                                                           00B3 
    ip                                                             00B8 
    ip.0                                                           00B8 
    ip.1                                                           00B9 
    ip.2                                                           00BA 
    ip.3                                                           00BB 
    ip.4                                                           00BC 
    ip.5                                                           00BD 
    it0                                                            0088 
    it1                                                            008A 
    ov                                                             00D2 
    p                                                              00D0 
    p0                                                             0080 
    p0.0                                                           0080 
    p0.1                                                           0081 
    p0.2                                                           0082 
    p0.3                                                           0083 
    p0.4                                                           0084 
    p0.5                                                           0085 
    p0.6                                                           0086 
    p0.7                                                           0087 
    p1                                                             0090 
    p1.0                                                           0090 
    p1.1                                                           0091 
    p1.2                                                           0092 
    p1.3                                                           0093 
    p1.4                                                           0094 
    p1.5                                                           0095 
    p1.6                                                           0096 
    p1.7                                                           0097 
    p2                                                             00A0 
    p2.0                                                           00A0 
    p2.1                                                           00A1 
    p2.2                                                           00A2 
    p2.3                                                           00A3 
    p2.4                                                           00A4 
    p2.5                                                           00A5 
    p2.6                                                           00A6 
    p2.7                                                           00A7 
    p3                                                             00B0 
    p3.0                                                           00B0 
    p3.1                                                           00B1 
    p3.2                                                           00B2 
    p3.3                                                           00B3 
    p3.4                                                           00B4 
    p3.5                                                           00B5 
    p3.6                                                           00B6 
    p3.7                                                           00B7 
    pcon                                                           0087 
    ps                                                             00BC 
    psw                                                            00D0 
    psw.0                                                          00D0 
    psw.1                                                          00D1 
    psw.2                                                          00D2 
    psw.3                                                          00D3 
    psw.4                                                          00D4 
    psw.5                                                          00D5 
    psw.6                                                          00D6 
    psw.7                                                          00D7 
    pt0                                                            00B9 
    pt1                                                            00BB 
    pt2                                                            00BD 
    px0                                                            00B8 
    px1                                                            00BA 
    rb8                                                            009A 
    rcap2h                                                         00CB 
    rcap2l                                                         00CA 
    rclk                                                           00CD 
    ren                                                            009C 
    ri                                                             0098 
    rs0                                                            00D3 
    rs1                                                            00D4 
    rxd                                                            00B0 
    sbuf                                                           0099 
    scon                                                           0098 
    scon.0                                                         0098 
    scon.1                                                         0099 
    scon.2                                                         009A 
    scon.3                                                         009B 
    scon.4                                                         009C 
    scon.5                                                         009D 
    scon.6                                                         009E 
    scon.7                                                         009F 
    sm0                                                            009F 
    sm1                                                            009E 
    sm2                                                            009D 
    sp                                                             0081 
    t2con                                                          00C8 
    t2con.0                                                        00C8 
    t2con.1                                                        00C9 
    t2con.2                                                        00CA 
    t2con.3                                                        00CB 
    t2con.4                                                        00CC 
    t2con.5                                                        00CD 
    t2con.6                                                        00CE 
    t2con.7                                                        00CF 
    tb8                                                            009B 
    tclk                                                           00CC 
    tcon                                                           0088 
    tcon.0                                                         0088 
    tcon.1                                                         0089 
    tcon.2                                                         008A 
    tcon.3                                                         008B 
    tcon.4                                                         008C 
    tcon.5                                                         008D 
    tcon.6                                                         008E 
    tcon.7                                                         008F 
    tf0                                                            008D 
    tf1                                                            008F 
    tf2                                                            00CF 
    th0                                                            008C 
    th1                                                            008D 
    th2                                                            00CD 
    ti                                                             0099 
    tl0                                                            008A 
    tl1                                                            008B 
    tl2                                                            00CC 
    tmod                                                           0089 
    tr0                                                            008C 
    tr1                                                            008E 
    tr2                                                            00CA 
    txd                                                            00B1 

ASxxxx Assembler V01.70 + NoICE + SDCC mods + Flat24 Feb-1999  (Intel 8051), page 2.

Area Table

   0 _CODE                                                                              size    0   flags 0
   1 RSEG                                                                               size    0   flags 0
   2 REG_BANK_0                                                                         size    8   flags 4
   3 DSEG                                                                               size    0   flags 0
   4 OSEG                                                                               size    0   flags 4
   5 SSEG                                                                               size    1   flags 0
   6 ISEG                                                                               size    0   flags 0
   7 BSEG                                                                               size    0   flags 80
   8 PSEG                                                                               size    0   flags 50
   9 XSEG                                                                               size 3438   flags 40
   A XISEG                                                                              size    1   flags 40
   B HOME                                                                               size    3   flags 20
   C GSINIT0                                                                            size    0   flags 20
   D GSINIT1                                                                            size    0   flags 20
   E GSINIT2                                                                            size    0   flags 20
   F GSINIT3                                                                            size    0   flags 20
  10 GSINIT4                                                                            size    0   flags 20
  11 GSINIT5                                                                            size    0   flags 20
  12 GSINIT                                                                             size    0   flags 20
  13 GSFINAL                                                                            size    3   flags 20
  14 CSEG                                                                               size  D5D   flags 20
  15 CONST                                                                              size  4EA   flags 20
  16 XINIT                                                                              size    1   flags 20
